TP3-GITversion
…
Question 3

# A tibble: 1 × 2
  artist         n
  <chr>      <int>
1 Katy Perry    17

The most popular artist is Katy Perry with 17 songs.

Question 4

Minimum, maximum, mean and median bpm for each musical genre (plus the number of songs).

# A tibble: 50 × 5
   `top genre`        `median(bpm)` `mean(bpm)` `max(bpm)` `min(bpm)`
   <chr>                      <dbl>       <dbl>      <dbl>      <dbl>
 1 acoustic pop                155         155         185        125
 2 alaska indie                132         132         132        132
 3 alternative r&b             136         136         136        136
 4 art pop                     108.        115.        150         94
 5 atl hip hop                 112         108.        130         80
 6 australian dance            115         129.        192         87
 7 australian hip hop           95          95          95         95
 8 australian pop              150         154.        186        127
 9 barbadian pop               126.        128.        206         78
10 baroque pop                 146         146         184        108
# ℹ 40 more rows

# A tibble: 50 × 3
   `top genre`            N groups
   <chr>              <int> <chr> 
 1 acoustic pop           2 song  
 2 alaska indie           1 song  
 3 alternative r&b        1 song  
 4 art pop                8 song  
 5 atl hip hop            4 song  
 6 australian dance       6 song  
 7 australian hip hop     1 song  
 8 australian pop         5 song  
 9 barbadian pop         12 song  
10 baroque pop            2 song  
# ℹ 40 more rows
…
